{
    "products" :  [
        {
            "id" : 0,
            "name" : "basket",
            "picture" : "/images/products/shoes.png"

        },
        {
            "id" : 1,
            "name" : "basket",
            "picture" : "/images/products/shoes.png"

        }
    ]
}